<svg width="559" height="90" viewBox="0 0 559 90" fill="none" xmlns="http://www.w3.org/2000/svg">
<path d="M44.5182 85.6522C33.5369 85.6522 23.2124 81.3751 15.4466 73.6107C-0.582735 57.58 -0.582735 31.4981 15.4466 15.4681C23.2124 7.703 33.5369 3.4266 44.5182 3.4266C55.4994 3.4266 65.824 7.703 73.5891 15.4681L103.871 45.7503L122.042 63.9195C127.218 69.0964 134.101 71.9478 141.422 71.9478C148.744 71.9478 155.627 69.0964 160.803 63.9195C165.972 58.7512 168.819 51.8679 168.819 44.5391C168.819 37.2102 165.972 30.327 160.803 25.1587C155.627 19.9824 148.744 17.131 141.422 17.131C134.101 17.131 127.218 19.9824 122.042 25.1587L124.464 27.5811C128.993 23.0509 135.015 20.5569 141.422 20.5569C147.828 20.5569 153.851 23.0509 158.381 27.5811C162.902 32.1027 165.392 38.1255 165.392 44.5391C165.392 50.9533 162.902 56.9754 158.38 61.497C153.851 66.0273 147.828 68.5219 141.422 68.5219C135.015 68.5219 128.993 66.0273 124.464 61.497L106.294 43.3278L76.0123 13.0457C67.5991 4.63316 56.4147 8.48739e-06 44.5182 8.48739e-06C32.6216 8.48739e-06 21.4373 4.63316 13.0241 13.0457C-4.34137 30.4111 -4.34137 58.6677 13.0241 76.0331C21.4366 84.445 32.6216 89.0781 44.5182 89.0781C56.4147 89.0781 67.5991 84.445 76.0123 76.0331L73.5898 73.6107C65.824 81.3751 55.4994 85.6522 44.5182 85.6522Z" fill="#494949"/>
<path d="M172.916 13.0452C164.503 4.63341 153.319 0.000252628 141.422 0.000252628C129.526 0.000252628 118.341 4.63341 109.929 13.0452L112.351 15.4677C120.117 7.70258 130.441 3.42618 141.422 3.42618C152.404 3.42618 162.728 7.70258 170.493 15.4677C186.523 31.4983 186.523 57.5803 170.493 73.6109C162.728 81.3754 152.404 85.6518 141.422 85.6518C130.441 85.6518 120.117 81.3754 112.351 73.6109L82.0685 43.3281L63.8994 25.1589C58.7231 19.9819 51.8398 17.1306 44.5183 17.1306C37.1968 17.1306 30.3135 19.9819 25.1372 25.1589C19.9683 30.3272 17.1216 37.2104 17.1216 44.5393C17.1216 51.8682 19.9683 58.7514 25.1372 63.9197C30.3135 69.096 37.1968 71.9481 44.5183 71.9481C51.8398 71.9481 58.7231 69.096 63.8994 63.9197L61.4762 61.4973C56.9473 66.0275 50.9246 68.5215 44.5183 68.5215C38.1121 68.5215 32.0893 66.0275 27.5597 61.4973C23.0381 56.9757 20.5475 50.9529 20.5475 44.5393C20.5475 38.1251 23.0381 32.103 27.5604 27.5814C32.0893 23.0511 38.1121 20.5565 44.5183 20.5565C50.9246 20.5565 56.9473 23.0511 61.4762 27.5814L79.6461 45.7505L109.929 76.0327C118.341 84.4452 129.526 89.0784 141.422 89.0784C153.319 89.0784 164.503 84.4452 172.916 76.0327C190.282 58.6673 190.282 30.4107 172.916 13.0452Z" fill="#494949"/>
<path d="M164.437 21.5235C170.584 27.6712 173.97 35.8445 173.97 44.5383C173.97 53.232 170.584 61.406 164.437 67.553C158.29 73.7001 150.116 77.0859 141.423 77.0859C132.728 77.0859 124.555 73.7001 118.408 67.553L118.407 67.5537L117.136 66.2817L114.713 68.7042L115.985 69.9762L115.985 69.9755C122.779 76.7699 131.814 80.5118 141.423 80.5118C151.032 80.5118 160.065 76.7699 166.859 69.9755C173.654 63.1811 177.395 54.1473 177.395 44.5383C177.395 34.9292 173.654 25.8954 166.86 19.101C152.833 5.07397 130.011 5.07397 115.985 19.101L118.408 21.5235C131.098 8.83327 151.747 8.83327 164.437 21.5235Z" fill="#494949"/>
<path d="M95.6724 49.6633L98.0949 47.2409L95.6417 44.7877L93.2192 47.2101L95.6724 49.6633Z" fill="#494949"/>
<path d="M101.046 55.0366L103.468 52.6142L101.015 50.161L98.5928 52.5834L101.046 55.0366Z" fill="#494949"/>
<path d="M106.419 60.4108L108.842 57.9883L106.389 55.5351L103.966 57.9576L106.419 60.4108Z" fill="#494949"/>
<path d="M111.793 65.7841L114.215 63.3616L111.762 60.9084L109.34 63.3309L111.793 65.7841Z" fill="#494949"/>
<path d="M90.2903 44.2816L92.7121 41.8578L90.2529 39.3993L87.8311 41.8231L90.2903 44.2816Z" fill="#494949"/>
<path d="M79.4881 28.634L77.0657 31.0565L79.5202 33.5104L80.3293 32.7047L81.9427 31.0879L79.4881 28.634Z" fill="#494949"/>
<path d="M74.1395 28.1307L76.562 25.7083L74.1048 23.2504L71.6816 25.6722L74.1395 28.1307Z" fill="#494949"/>
<path d="M80.7339 32.3019L80.3291 32.7048L79.5227 33.5132L80.7339 32.3019Z" fill="white"/>
<path d="M84.9049 38.8956L87.3274 36.4732L84.8702 34.016L82.447 36.4384L84.9049 38.8956Z" fill="#494949"/>
<path d="M68.8023 22.7941L71.2254 20.3717L69.9554 19.101L68.7442 20.3122L69.9554 19.101C63.1604 12.3066 54.1265 8.56465 44.5182 8.56465C34.9092 8.56465 25.8753 12.3066 19.0809 19.101C12.2859 25.8954 8.54395 34.9292 8.54395 44.5382C8.54395 54.1472 12.2859 63.1811 19.0809 69.9755C25.8753 76.7699 34.9092 80.5125 44.5182 80.5125C54.1265 80.5125 63.1604 76.7699 69.9554 69.9755L67.5323 67.553C61.3853 73.7 53.2119 77.0859 44.5182 77.0859C35.8244 77.0859 27.6504 73.7 21.5034 67.553C15.3557 61.406 11.9705 53.2326 11.9705 44.5382C11.9705 35.8445 15.3557 27.6718 21.5034 21.5234C27.6504 15.3764 35.8244 11.9906 44.5182 11.9906C53.2119 11.9906 61.3853 15.3764 67.5323 21.5234L68.8023 22.7941Z" fill="#494949"/>
<rect x="109.938" y="13.0337" width="3.43773" height="23.9967" transform="rotate(45 109.938 13.0337)" fill="url(#paint0_linear_44_125)"/>
<rect x="115.992" y="19.0869" width="3.43773" height="23.9967" transform="rotate(45 115.992 19.0869)" fill="url(#paint1_linear_44_125)"/>
<rect x="122.045" y="25.1401" width="3.43773" height="23.9967" transform="rotate(45 122.045 25.1401)" fill="url(#paint2_linear_44_125)"/>
<rect width="3.43773" height="23.9967" transform="matrix(0.707107 0.707107 0.707107 -0.707107 61.4646 61.5074)" fill="url(#paint3_linear_44_125)"/>
<rect width="3.43773" height="23.9967" transform="matrix(0.707107 0.707107 0.707107 -0.707107 67.5178 67.5607)" fill="url(#paint4_linear_44_125)"/>
<rect width="3.43773" height="23.9967" transform="matrix(0.707107 0.707107 0.707107 -0.707107 73.571 73.614)" fill="url(#paint5_linear_44_125)"/>
<path d="M219.028 52.783V74.5254C219.028 75.6293 219.179 76.7735 219.479 77.9581C219.779 79.1443 220.28 80.2377 220.982 81.2398C221.683 82.242 222.602 83.0602 223.737 83.6944C224.872 84.3286 226.275 84.6457 227.946 84.6457C229.615 84.6457 231.018 84.3286 232.154 83.6944C233.29 83.0602 234.207 82.242 234.91 81.2398C235.61 80.2377 236.113 79.1443 236.414 77.9581C236.714 76.7735 236.864 75.6293 236.864 74.5254V52.783H241.673V75.2777C241.673 77.3494 241.323 79.228 240.621 80.9138C239.92 82.601 238.95 84.0623 237.715 85.2978C236.479 86.5333 235.027 87.4861 233.358 88.1532C231.685 88.8218 229.883 89.1554 227.946 89.1554C226.009 89.1554 224.205 88.8218 222.536 88.1532C220.865 87.4861 219.413 86.5333 218.177 85.2978C216.94 84.0623 215.973 82.601 215.271 80.9138C214.57 79.228 214.218 77.3494 214.218 75.2777V52.783H219.028Z" fill="#494949"/>
<path d="M260.16 52.783H266.472L286.011 81.9413H286.111V52.783H290.92V88.2534H284.808L265.069 59.0966H264.969V88.2534H260.16V52.783Z" fill="#494949"/>
<path d="M310.058 52.783H314.867V83.7452H331.15V88.2534H310.058V52.783Z" fill="#494949"/>
<path d="M346.079 52.7834H350.888V88.2538H346.079V52.7834Z" fill="#494949"/>
<path d="M369.676 52.783H376.84L388.113 79.6363H388.313L399.485 52.783H406.649V88.2534H401.839V59.0966H401.739L389.765 88.2534H386.56L374.586 59.0966H374.485V88.2534H369.676V52.783Z" fill="#494949"/>
<path d="M425.437 52.7834H430.247V88.2538H425.437V52.7834Z" fill="#494949"/>
<path d="M456.799 57.2923H445.375V52.7826H473.032V57.2923H461.607V88.2531H456.799V57.2923Z" fill="#494949"/>
<path d="M488.16 52.783H511.055V57.2927H492.97V67.8632H509.804V72.3729H492.97V83.7452H511.957V88.2534H488.16V52.783Z" fill="#494949"/>
<path d="M532.797 83.7448H538.86C540.895 83.7448 542.825 83.4681 544.645 82.9177C546.467 82.3672 548.06 81.5401 549.43 80.4377C550.799 79.3368 551.885 77.9592 552.686 76.3049C553.488 74.6521 553.889 72.7226 553.889 70.5193C553.889 69.3841 553.705 68.0558 553.337 66.5346C552.969 65.0164 552.277 63.5715 551.26 62.2014C550.239 60.8328 548.83 59.6721 547.025 58.7208C545.221 57.768 542.883 57.2923 540.011 57.2923H532.797V83.7448ZM527.989 52.7826H540.363C542.867 52.7826 545.063 53.0683 546.95 53.6352C548.836 54.2036 550.473 54.9634 551.859 55.9147C553.246 56.8661 554.398 57.9609 555.318 59.1964C556.234 60.4319 556.961 61.7003 557.497 63.0046C558.029 64.306 558.414 65.6088 558.649 66.9116C558.882 68.2129 559 69.4155 559 70.5193C559 72.7899 558.581 74.9857 557.747 77.1067C556.911 79.2276 555.675 81.1138 554.039 82.7681C552.401 84.4209 550.374 85.7492 547.952 86.7513C545.531 87.7535 542.734 88.2531 539.56 88.2531H527.989V52.7826Z" fill="#494949"/>
<path d="M219.027 33.9459H226.091C226.826 33.9459 227.635 33.8711 228.52 33.72C229.404 33.5704 230.233 33.2698 231 32.8181C231.769 32.3678 232.42 31.7591 232.955 30.9903C233.488 30.2229 233.756 29.2028 233.756 27.9344C233.756 25.8299 233.071 24.2519 231.702 23.1988C230.332 22.1473 228.479 21.6208 226.141 21.6208H219.027V33.9459ZM219.027 17.4133H225.59C226.491 17.4133 227.343 17.322 228.145 17.1365C228.947 16.9541 229.648 16.6459 230.25 16.2107C230.851 15.7769 231.327 15.2265 231.678 14.5578C232.028 13.8907 232.203 13.0726 232.203 12.1018C232.203 10.7003 231.751 9.48124 230.851 8.44468C229.949 7.40962 228.529 6.89208 226.592 6.89208H219.027V17.4133ZM214.218 2.68302H226.542C228.078 2.68302 229.505 2.867 230.825 3.23495C232.145 3.60291 233.28 4.14437 234.233 4.86383C235.184 5.5818 235.936 6.5002 236.487 7.61902C237.037 8.73785 237.314 10.0481 237.314 11.5514C237.314 13.5886 236.746 15.2504 235.609 16.5367C234.474 17.8216 233.005 18.7654 231.201 19.3667V19.4669C232.27 19.5342 233.271 19.8095 234.207 20.2941C235.141 20.7787 235.951 21.4129 236.636 22.1967C237.322 22.982 237.864 23.8929 238.264 24.9279C238.666 25.9645 238.865 27.0818 238.865 28.2844C238.865 29.8879 238.541 31.2999 237.888 32.5174C237.238 33.738 236.343 34.7641 235.209 35.5987C234.073 36.4348 232.755 37.069 231.252 37.5028C229.748 37.9366 228.127 38.1534 226.392 38.1534H214.218V2.68302Z" fill="#494949"/>
<path d="M255.8 2.68414H260.609V38.1545H255.8V2.68414Z" fill="#494949"/>
<path d="M287.162 7.19322H275.739V2.68351H303.394V7.19322H291.97V38.1539H287.162V7.19322Z" fill="#494949"/>
<path d="M343.222 10.3493C342.22 9.04651 340.95 8.04435 339.414 7.34284C337.878 6.64133 336.291 6.29132 334.655 6.29132C332.652 6.29132 330.839 6.66675 329.219 7.41912C327.599 8.16999 326.214 9.19758 325.061 10.5004C323.909 11.8017 323.015 13.3304 322.38 15.0834C321.746 16.8364 321.429 18.7151 321.429 20.7209C321.429 22.5906 321.73 24.3601 322.331 26.0308C322.932 27.7001 323.8 29.1704 324.935 30.4388C326.07 31.7087 327.457 32.7109 329.095 33.4453C330.73 34.1797 332.583 34.5477 334.655 34.5477C336.692 34.5477 338.479 34.1304 340.015 33.2942C341.552 32.4596 342.853 31.2914 343.924 29.7882L347.982 32.844C347.713 33.212 347.246 33.7385 346.58 34.422C345.909 35.1071 345.026 35.7922 343.924 36.4757C342.821 37.1608 341.493 37.7621 339.941 38.2796C338.388 38.7971 336.592 39.0559 334.556 39.0559C331.75 39.0559 329.219 38.5204 326.965 37.4525C324.711 36.3845 322.789 34.9815 321.203 33.2449C319.616 31.5083 318.406 29.5459 317.572 27.3576C316.735 25.1708 316.32 22.9586 316.32 20.7209C316.32 17.9822 316.768 15.4513 317.67 13.1299C318.574 10.8085 319.833 8.80569 321.453 7.11847C323.074 5.43126 325.019 4.12097 327.291 3.18463C329.562 2.25128 332.067 1.78161 334.806 1.78161C337.144 1.78161 339.44 2.23333 341.694 3.13527C343.948 4.03721 345.794 5.42378 347.229 7.29348L343.222 10.3493Z" fill="#494949"/>
<path d="M415.514 2.68414H420.323V38.1545H415.514V2.68414Z" fill="#494949"/>
<path d="M439.462 2.68375H445.774L465.311 31.8421H465.413V2.68375H470.222V38.1542H464.11L444.371 8.99735H444.271V38.1542H439.462V2.68375Z" fill="#494949"/>
<path d="M380.912 18.9314C381.204 18.8222 381.459 18.7339 381.64 18.6367L382.313 18.2792C382.559 18.1252 382.756 17.9741 382.909 17.823C383.061 17.6719 383.178 17.494 383.311 17.3055C383.444 17.1185 383.522 16.9136 383.534 16.6743C383.574 16.4439 383.541 16.2046 383.47 15.9399C383.378 15.6377 383.245 15.3834 383.063 15.177C382.867 14.9781 382.687 14.818 382.473 14.7223C382.258 14.6266 382.007 14.5488 381.694 14.5294C381.398 14.4994 381.124 14.5069 380.876 14.5219C380.635 14.5563 380.333 14.5997 379.995 14.664C379.655 14.7283 379.389 14.7986 379.19 14.8599C378.988 14.9198 378.752 14.999 378.45 15.0888C378.158 15.198 377.974 15.2488 377.91 15.2593L379.121 19.4639C379.157 19.4444 379.322 19.404 379.587 19.3322C379.871 19.2515 380.08 19.2096 380.236 19.1513C380.373 19.1019 380.61 19.0211 380.912 18.9314Z" fill="#494949"/>
<path d="M385.873 21.4215C385.663 21.2061 385.43 21.0281 385.188 20.9234C384.927 20.8292 384.631 20.7529 384.272 20.735C383.912 20.7155 383.59 20.723 383.295 20.7409C383.001 20.7574 382.663 20.8202 382.241 20.9055C381.819 20.9892 381.49 21.0715 381.272 21.1403C381.043 21.1927 380.741 21.2824 380.385 21.4021C380.011 21.5307 379.809 21.592 379.728 21.613L381.058 26.2648C381.122 26.2543 381.306 26.2034 381.571 26.1316C381.837 26.0613 382.055 25.991 382.238 25.9402C382.404 25.8998 382.64 25.8205 382.96 25.7203C383.261 25.6291 383.536 25.5304 383.744 25.4421C383.964 25.3733 384.227 25.2551 384.501 25.11C384.8 24.9739 385.027 24.8303 385.219 24.7062C385.407 24.582 385.606 24.4295 385.786 24.241C385.965 24.0525 386.116 23.8551 386.205 23.6681C386.3 23.4542 386.36 23.2598 386.392 23.01C386.402 22.7707 386.387 22.5224 386.335 22.2472C386.224 21.9091 386.081 21.6369 385.873 21.4215Z" fill="#494949"/>
<path d="M390.642 23.2906C390.546 23.8545 390.364 24.3466 390.099 24.7684C389.815 25.1992 389.467 25.5941 388.988 25.965C388.508 26.336 388.001 26.6531 387.446 26.9238C386.891 27.196 386.252 27.4428 385.504 27.7001L386.514 31.2196L384.393 31.8344L383.413 28.3702C382.692 28.5901 382.125 28.7516 381.732 28.8443L382.721 32.3265L380.6 32.9412L379.592 29.4232C379.427 29.4636 379.171 29.5533 378.842 29.6341C378.522 29.7343 378.275 29.7956 378.091 29.8465L375.342 30.6333L375.053 27.9903L376.588 27.546C377.056 27.4144 377.242 27.1063 377.192 26.6201L375.617 21.0709L375.837 21.0006C375.773 21.0125 375.709 21.023 375.607 21.0529L374.486 17.1041C374.177 16.5223 373.676 16.3233 372.989 16.5253L371.455 16.968L370.808 14.7004L373.734 13.8912C374.319 13.7207 374.757 13.5801 375.059 13.4904L374.069 10.0068L376.201 9.40995L377.168 12.8113C377.907 12.581 378.465 12.4015 378.832 12.2998L377.873 8.91784L380.012 8.29262L381.001 11.7762C381.742 11.6371 382.421 11.5564 383.018 11.5414C383.618 11.5264 384.191 11.5953 384.746 11.7194C385.301 11.8435 385.785 12.0978 386.191 12.4658C386.596 12.8322 386.912 13.2944 387.138 13.8957C387.778 15.5366 387.518 16.8872 386.348 17.9762C387.489 17.9298 388.433 18.1721 389.166 18.7151C389.887 19.2401 390.379 20.1674 390.596 21.4508C390.714 22.1104 390.738 22.7267 390.642 23.2906ZM380.631 1.72474C370.2 1.72474 361.746 10.1788 361.746 20.6102C361.746 31.0401 370.2 39.4941 380.631 39.4941C391.059 39.4941 399.517 31.0401 399.517 20.6102C399.517 10.1788 391.059 1.72474 380.631 1.72474Z" fill="#494949"/>
<defs>
<linearGradient id="paint0_linear_44_125" x1="111.657" y1="13.0337" x2="111.657" y2="37.0304" gradientUnits="userSpaceOnUse">
<stop stop-color="#494949"/>
<stop offset="1" stop-color="#494949" stop-opacity="0"/>
</linearGradient>
<linearGradient id="paint1_linear_44_125" x1="117.711" y1="19.0869" x2="117.711" y2="43.0836" gradientUnits="userSpaceOnUse">
<stop stop-color="#494949"/>
<stop offset="1" stop-color="#494949" stop-opacity="0"/>
</linearGradient>
<linearGradient id="paint2_linear_44_125" x1="123.764" y1="25.1401" x2="123.764" y2="49.1368" gradientUnits="userSpaceOnUse">
<stop stop-color="#494949"/>
<stop offset="1" stop-color="#494949" stop-opacity="0"/>
</linearGradient>
<linearGradient id="paint3_linear_44_125" x1="1.71887" y1="0" x2="1.71887" y2="23.9967" gradientUnits="userSpaceOnUse">
<stop stop-color="#494949"/>
<stop offset="1" stop-color="#494949" stop-opacity="0"/>
</linearGradient>
<linearGradient id="paint4_linear_44_125" x1="1.71887" y1="0" x2="1.71887" y2="23.9967" gradientUnits="userSpaceOnUse">
<stop stop-color="#494949"/>
<stop offset="1" stop-color="#494949" stop-opacity="0"/>
</linearGradient>
<linearGradient id="paint5_linear_44_125" x1="1.71887" y1="0" x2="1.71887" y2="23.9967" gradientUnits="userSpaceOnUse">
<stop stop-color="#494949"/>
<stop offset="1" stop-color="#494949" stop-opacity="0"/>
</linearGradient>
</defs>
</svg>
